{
    "boundingBox": {
        "xmax": 83.2696762084961,
        "xmin": 71.72267150878906,
        "ymax": -8.53887939453125,
        "ymin": -18.53887939453125,
        "zmax": 63.77846908569336,
        "zmin": 55.27846908569336
    },
    "cog": {
        "x": 77.4961736190666,
        "y": -13.898220695134414,
        "z": 58.75822961515108
    },
    "errors": [
        {
            "color": [
                0.737374,
                0.1111,
                0.243245676543
            ],
            "desc": "Its a hole",
            "id": "holes",
            "name": "HOLES",
            "visible": true
        },
        {
            "color": [
                0.737374,
                0.1111,
                0.243245676543
            ],
            "desc": "Its a thin wall",
            "id": "wt",
            "name": "WT",
            "visible": true
        },
        {
            "color": [
                0.737374,
                0.1111,
                0.243245676543
            ],
            "desc": "Its an overhanging are",
            "id": "overhanging",
            "name": "OVERHANGING",
            "visible": true
        }
    ],
    "id": "0",
    "showXYZ": true
}
